﻿{
	"version":"2015.11.17.01",
	"cft":{
		"prototype.Publication":{
			"dispatchDate":{
				"__xpath__":[
					"/TED_ESENDERS/FORM_SECTION/CONTRACT/FD_CONTRACT/COMPLEMENTARY_INFORMATION_CONTRACT_NOTICE/NOTICE_DISPATCH_DATE"
				]
				
			},
			"language":{
				"__xpath__":[
					"/TED_ESENDERS/FORM_SECTION/CONTRACT/@LG"
				]
				
			},
			"version":{
				"__xpath__":[
					"/TED_ESENDERS/FORM_SECTION/CONTRACT/@VERSION"
				]
				
			},
			"machineURL":{
				"__special__":"value",
				"__value__":"url"
			},
			"releaseTag":{
				"__value__":"cft"
			},
			"contract":{
				"assignedContractId":{
					"__xpath__":[
						"/TED_ESENDERS/SENDER/NO_DOC_EXT"
					]
				},
				"country":{
					"__xpath__":[
						"/TED_ESENDERS/SENDER/USER/COUNTRY/@VALUE"
					]
					
				},
				"title":{
					"__xpath__":[
						"/TED_ESENDERS/FORM_SECTION/CONTRACT/FD_CONTRACT/OBJECT_CONTRACT_INFORMATION/DESCRIPTION_CONTRACT_INFORMATION/TITLE_CONTRACT"
					]
					
				},
				"procedureType":{
					"__xpath__":[
						"/TED_ESENDERS/FORM_SECTION/CONTRACT/FD_CONTRACT/PROCEDURE_DEFINITION_CONTRACT_NOTICE/TYPE_OF_PROCEDURE/TYPE_OF_PROCEDURE_DETAIL_FOR_CONTRACT_NOTICE/PT_OPEN"
					]
					
				},
				"description":{
					"__xpath__":[
						"/TED_ESENDERS/FORM_SECTION/CONTRACT/FD_CONTRACT/OBJECT_CONTRACT_INFORMATION/DESCRIPTION_CONTRACT_INFORMATION/SHORT_CONTRACT_DESCRIPTION"
					]
					
				},
				"estimatedValue":{
					"netAmount":{
						"__xpath__":[
							"/TED_ESENDERS/FORM_SECTION/CONTRACT/FD_CONTRACT/OBJECT_CONTRACT_INFORMATION/QUANTITY_SCOPE/NATURE_QUANTITY_SCOPE/COSTS_RANGE_AND_CURRENCY/VALUE_COST"
						]
						
					},
					"currency":{
						"__xpath__":[
							"/TED_ESENDERS/FORM_SECTION/CONTRACT/FD_CONTRACT/OBJECT_CONTRACT_INFORMATION/QUANTITY_SCOPE/NATURE_QUANTITY_SCOPE/COSTS_RANGE_AND_CURRENCY/@CURRENCY"
						]
						
					}
					
				},
				"type":{
					"__xpath__":[
						"/TED_ESENDERS/FORM_SECTION/CONTRACT/FD_CONTRACT/@CTYPE"
					]
					
				},
				"docDeadlineDate":{
					"__xpath__":[
						"/TED_ESENDERS/FORM_SECTION/CONTRACT/FD_CONTRACT/PROCEDURE_DEFINITION_CONTRACT_NOTICE/ADMINISTRATIVE_INFORMATION_CONTRACT_NOTICE/RECEIPT_LIMIT_DATE"
					]
					
				},
				"documentsPrice":{
					"netAmount":{
						"__xpath__":[
							"/TED_ESENDERS/FORM_SECTION/CONTRACT/FD_CONTRACT/PROCEDURE_DEFINITION_CONTRACT_NOTICE/ADMINISTRATIVE_INFORMATION_CONTRACT_NOTICE/CONDITIONS_OBTAINING_SPECIFICATIONS/PAYABLE_DOCUMENTS/DOCUMENT_COST"
						]
						
					},
					"currency":{
						"__xpath__":[
							"/TED_ESENDERS/FORM_SECTION/CONTRACT/FD_CONTRACT/PROCEDURE_DEFINITION_CONTRACT_NOTICE/ADMINISTRATIVE_INFORMATION_CONTRACT_NOTICE/CONDITIONS_OBTAINING_SPECIFICATIONS/PAYABLE_DOCUMENTS/DOCUMENT_COST/@CURRENCY"
						]
						
					}
					
				},
				"documentsLocation":{
					"rawAddress":{
						"__xpath__":[
							"/TED_ESENDERS/FORM_SECTION/CONTRACT/FD_CONTRACT/PROCEDURE_DEFINITION_CONTRACT_NOTICE/ADMINISTRATIVE_INFORMATION_CONTRACT_NOTICE/CONDITIONS_FOR_OPENING_TENDERS/PLACE_OPENING/PLACE_NOT_STRUCTURED"
						]
						
					}
					
				},
				"buyer":{
					"mainActivity":{
						"__xpath__":[
							"/TED_ESENDERS/FORM_SECTION/CONTRACT/FD_CONTRACT/CONTRACTING_AUTHORITY_INFORMATION/TYPE_AND_ACTIVITIES_AND_PURCHASING_ON_BEHALF/TYPE_AND_ACTIVITIES/TYPE_OF_ACTIVITY/@VALUE"
						]
						
					},
					"buyerType":{
						"__xpath__":[
							"/TED_ESENDERS/FORM_SECTION/CONTRACT/FD_CONTRACT/CONTRACTING_AUTHORITY_INFORMATION/TYPE_AND_ACTIVITIES_AND_PURCHASING_ON_BEHALF/TYPE_AND_ACTIVITIES/TYPE_OF_CONTRACTING_AUTHORITY/@VALUE"
						]
						
					},
					"body":{
						"bodyName":{
							"__xpath__":[
								"/TED_ESENDERS/FORM_SECTION/CONTRACT/FD_CONTRACT/CONTRACTING_AUTHORITY_INFORMATION/NAME_ADDRESSES_CONTACT_CONTRACT/CA_CE_CONCESSIONAIRE_PROFILE/ORGANISATION/OFFICIALNAME"
							]
							
						},
						"bodyAddress":{
							"street":{
								"__xpath__":[
									"/TED_ESENDERS/FORM_SECTION/CONTRACT/FD_CONTRACT/CONTRACTING_AUTHORITY_INFORMATION/NAME_ADDRESSES_CONTACT_CONTRACT/CA_CE_CONCESSIONAIRE_PROFILE/ADDRESS"
								]
								
							},
							"city":{
								"__xpath__":[
									"/TED_ESENDERS/FORM_SECTION/CONTRACT/FD_CONTRACT/CONTRACTING_AUTHORITY_INFORMATION/NAME_ADDRESSES_CONTACT_CONTRACT/CA_CE_CONCESSIONAIRE_PROFILE/TOWN"
								]
								
							},
							"country":{
								"__xpath__":[
									"/TED_ESENDERS/FORM_SECTION/CONTRACT/FD_CONTRACT/CONTRACTING_AUTHORITY_INFORMATION/NAME_ADDRESSES_CONTACT_CONTRACT/CA_CE_CONCESSIONAIRE_PROFILE/COUNTRY/@VALUE"
								]
								
							},
							"postcode":{
								"__xpath__":[
									"/TED_ESENDERS/FORM_SECTION/CONTRACT/FD_CONTRACT/CONTRACTING_AUTHORITY_INFORMATION/NAME_ADDRESSES_CONTACT_CONTRACT/CA_CE_CONCESSIONAIRE_PROFILE/POSTAL_CODE"
								]
								
							}
							
						},
						"email":{
							"__xpath__":[
								"/TED_ESENDERS/FORM_SECTION/CONTRACT/FD_CONTRACT/CONTRACTING_AUTHORITY_INFORMATION/NAME_ADDRESSES_CONTACT_CONTRACT/CA_CE_CONCESSIONAIRE_PROFILE/E_MAILS/E_MAIL"
							]
							
						},
						"url":{
							"__xpath__":[
								"/TED_ESENDERS/FORM_SECTION/CONTRACT/FD_CONTRACT/CONTRACTING_AUTHORITY_INFORMATION/NAME_ADDRESSES_CONTACT_CONTRACT/INTERNET_ADDRESSES_CONTRACT/URL_GENERAL"
							]
							
						},
						"contactPoint":{
							"__xpath__":[
								"/TED_ESENDERS/FORM_SECTION/CONTRACT/FD_CONTRACT/CONTRACTING_AUTHORITY_INFORMATION/NAME_ADDRESSES_CONTACT_CONTRACT/CA_CE_CONCESSIONAIRE_PROFILE/CONTACT_POINT"
							]
							
						},
						"contactPhone":{
							"__xpath__":[
								"/TED_ESENDERS/FORM_SECTION/CONTRACT/FD_CONTRACT/CONTRACTING_AUTHORITY_INFORMATION/NAME_ADDRESSES_CONTACT_CONTRACT/CA_CE_CONCESSIONAIRE_PROFILE/PHONE"
							]
							
						}
						
					}
					
				},
				"variantsAccepted":{
					"__xpath__":[
						"/TED_ESENDERS/FORM_SECTION/CONTRACT/FD_CONTRACT/OBJECT_CONTRACT_INFORMATION/DESCRIPTION_CONTRACT_INFORMATION/ACCEPTED_VARIANTS/@VALUE"
					],
					"__conversion__":{
						"YES":true
					}
					
				},
				"deposits":{
					"__xpath__":[
						"/TED_ESENDERS/FORM_SECTION/CONTRACT/FD_CONTRACT/LEFTI_CONTRACT/CONTRACT_RELATING_CONDITIONS/DEPOSITS_GUARANTEES_REQUIRED"
					]
					
				},
				"personalRequirements":{
					"__xpath__":[
						"/TED_ESENDERS/FORM_SECTION/CONTRACT/FD_CONTRACT/LEFTI_CONTRACT/F02_CONDITIONS_FOR_PARTICIPATION/ECONOMIC_OPERATORS_PERSONAL_SITUATION"
					]
					
				},
				"economicRequirements":{
					"__xpath__":[
						"/TED_ESENDERS/FORM_SECTION/CONTRACT/FD_CONTRACT/LEFTI_CONTRACT/F02_CONDITIONS_FOR_PARTICIPATION/ECONOMIC_OPERATORS_PERSONAL_SITUATION"
					]
					
				},
				"technicalRequirements":{
					"__xpath__":[
						"/TED_ESENDERS/FORM_SECTION/CONTRACT/FD_CONTRACT/LEFTI_CONTRACT/F02_CONDITIONS_FOR_PARTICIPATION/TECHNICAL_CAPACITY_LEFTI/T_CAPACITY_INFORMATION"
					]
					
				},
				"coveredByGPA":{
					"__xpath__":[
						"/TED_ESENDERS/FORM_SECTION/CONTRACT/FD_CONTRACT/OBJECT_CONTRACT_INFORMATION/DESCRIPTION_CONTRACT_INFORMATION/CONTRACT_COVERED_GPA/@VALUE"
					],
					"__conversion__":{
						"NO":false
					}
					
				},
				"addressOfPerformance":{
					"nuts":{
						"__xpath__":[
							"/TED_ESENDERS/FORM_SECTION/CONTRACT/FD_CONTRACT/OBJECT_CONTRACT_INFORMATION/DESCRIPTION_CONTRACT_INFORMATION/LOCATION_NUTS/NUTS/@CODE"
						]
						
					}
					
				},
				"electronicAuctionUsed":{
					"__xpath__":[
						"/TED_ESENDERS/FORM_SECTION/CONTRACT/FD_CONTRACT/PROCEDURE_DEFINITION_CONTRACT_NOTICE/AWARD_CRITERIA_CONTRACT_NOTICE_INFORMATION/IS_ELECTRONIC_AUCTION_USABLE/NO_USE_ELECTRONIC_AUCTION"
					],
					"__conversion__":{
						"NO_USE_ELECTRONIC_AUCTION":false
					}
					
				},
				"mainObject":{
					"__xpath__":[
						"/TED_ESENDERS/FORM_SECTION/CONTRACT/FD_CONTRACT/OBJECT_CONTRACT_INFORMATION/DESCRIPTION_CONTRACT_INFORMATION/CPV/CPV_MAIN/CPV_CODE/@CODE"
					]
					
				},
				"prototype.ContractAwardCriteria":{
					"name":{
						"__xpath__":[
							"/TED_ESENDERS/FORM_SECTION/CONTRACT/FD_CONTRACT/PROCEDURE_DEFINITION_CONTRACT_NOTICE/AWARD_CRITERIA_CONTRACT_NOTICE_INFORMATION/AWARD_CRITERIA_DETAIL"
						]
						
					},
					"__xpath__":[
						"/TED_ESENDERS/FORM_SECTION/CONTRACT/FD_CONTRACT/PROCEDURE_DEFINITION_CONTRACT_NOTICE/AWARD_CRITERIA_CONTRACT_NOTICE_INFORMATION"
					]
					
				},
				"prototype.AdditionalObjectsContract":{
					"cpv":{
						"__xpath__":[
							"/TED_ESENDERS/FORM_SECTION/CONTRACT/FD_CONTRACT/OBJECT_CONTRACT_INFORMATION/DESCRIPTION_CONTRACT_INFORMATION/CPV/CPV_ADDITIONAL/CPV_CODE/@CODE"
						]
						
					},
					"__xpath__":[
						"/TED_ESENDERS/FORM_SECTION/CONTRACT/FD_CONTRACT/OBJECT_CONTRACT_INFORMATION/DESCRIPTION_CONTRACT_INFORMATION/CPV/CPV_ADDITIONAL"
					]
					
				}
				
			},
			"__xpath__":[
				"/TED_ESENDERS/FORM_SECTION/CONTRACT/FD_CONTRACT"
			]
			
		}
		
	},
	"ca":{
		
	},
	"corriagenda":{
		"prototype.Corriagenda":null
	},
	"contractTypeSelection":{
		"cft":{
			"__xpath__":[
				"/TED_ESENDERS/FORM_SECTION/CONTRACT/@FORM"
			],
			"__values__":[
				"2"
			]
			
		},
		"ca":{

		}
		
	}
	
}
